<svg xmlns="http://www.w3.org/2000/svg" version="1" width="256" height="192">
  <defs>
    <linearGradient id="primary-to-tertiary" x1="0" y1="0" x2="0" y2="256" gradientUnits="userSpaceOnUse" gradientTransform="rotate(0)">
      <stop stop-color="#e70a84" offset="0" />
      <stop stop-color="#1792f4" offset="1" />
    </linearGradient>
    <linearGradient id="quaternary-to-secondary" x1="0" y1="0" x2="0" y2="256" gradientUnits="userSpaceOnUse" gradientTransform="rotate(0)">
      <stop stop-color="#777effa0" offset="0" />
      <stop stop-color="#2fdbe3" offset="1" />
    </linearGradient>
  </defs>
  <line x1="16" y1="176" x2="96" y2="16" stroke="url(#primary-to-tertiary)" stroke-width="32" stroke-linecap="round" style="mix-blend-mode: screen;" />
  <line x1="80" y1="176" x2="160" y2="16" stroke="url(#primary-to-tertiary)" stroke-width="32" stroke-linecap="round" style="mix-blend-mode: screen;" />
  <line x1="176" y1="176" x2="96" y2="16" stroke="url(#quaternary-to-secondary)" stroke-width="32" stroke-linecap="round" style="mix-blend-mode: screen;" />
  <line x1="216" y1="140" x2="160" y2="16" stroke="url(#quaternary-to-secondary)" stroke-width="32" stroke-linecap="round" style="mix-blend-mode: screen;" />
  <circle cx="240" cy="176" r="16" fill="#2fdbe3" />
</svg>